{
  "iisSettings": {
    "windowsAuthentication": false,
    "anonymousAuthentication": true,
    "iisExpress": {
      "applicationUrl": "http://localhost:5001",
      "sslPort": 0
    }
  },
  "profiles": {
    "IIS Express": {
      "commandName": "IISExpress",
      "launchUrl": "http://localhost:5001",
      "environmentVariables": {
        "ASPNETCORE_ENVIRONMENT": "Development"
      }
    },
    "Irms.WebApi": {
      "commandName": "Project",
      "launchUrl": "https://default.localhost:5001/swagger/",
      "environmentVariables": {
        "ASPNETCORE_ENVIRONMENT": "Development"
      },
      "applicationUrl": "http://localhost:5001"
    },
    "Docker": {
      "commandName": "Docker",
      "launchUrl": "{Scheme}://{ServiceHost}:{ServicePort}/",
      "environmentVariables": {
        "ASPNETCORE_URLS": "https://+:443;http://+:80",
        "ASPNETCORE_HTTPS_PORT": "44302"
      },
      "httpPort": 10000,
      "useSSL": true,
      "sslPort": 44302
    }
  }
}